Year,Generation0,CfD_generation0,CfD_revenue0,merchant_generation0,merchant_revenue0,effective_capture0,Generation1,CfD_generation1,CfD_revenue1,merchant_generation1,merchant_revenue1,effective_capture1,Generation2,CfD_generation2,CfD_revenue2,merchant_generation2,merchant_revenue2,effective_capture2,Generation3,CfD_generation3,CfD_revenue3,merchant_generation3,merchant_revenue3,effective_capture3,Generation4,CfD_generation4,CfD_revenue4,merchant_generation4,merchant_revenue4,effective_capture4,Generation5,CfD_generation5,CfD_revenue5,merchant_generation5,merchant_revenue5,effective_capture5,Generation6,CfD_generation6,CfD_revenue6,merchant_generation6,merchant_revenue6,effective_capture6,Generation7,CfD_generation7,CfD_revenue7,merchant_generation7,merchant_revenue7,effective_capture7,Generation8,CfD_generation8,CfD_revenue8,merchant_generation8,merchant_revenue8,effective_capture8,Generation9,CfD_generation9,CfD_revenue9,merchant_generation9,merchant_revenue9,effective_capture9,Generation10,CfD_generation10,CfD_revenue10,merchant_generation10,merchant_revenue10,effective_capture10,Total_revenue0,Total_revenue1,Total_revenue2,Total_revenue3,Total_revenue4,Total_revenue5,Total_revenue6,Total_revenue7,Total_revenue8,Total_revenue9,Total_revenue10
2022,2752.5870552250003,0.0,0.0,2752.5870552250003,1562009.2865980451,567.4695314842147,2752.5870552250003,368.569841828,72187.77866168527,2384.017213397,1401124.3870101152,535.2463468412882,2752.5870552250003,558.638825569,109806.70891547095,2193.948229656,1308064.7355797144,515.1050324834455,2752.5870552250003,767.0091700510001,150319.3154741096,1985.5778851740001,1197667.9696989278,489.7164951111241,2752.5870552250003,1012.146175065,197889.17774137793,1740.4408801600002,1067149.9216125773,459.5818675208254,2752.5870552250003,1237.330353045,239741.51732690775,1515.2567021800003,941449.6199677429,429.1203560855584,2752.5870552250003,1452.8277101549997,282892.53730697336,1299.75934507,817367.1002258178,399.7183796400781,2752.5870552250003,1678.150524743,327202.93192177324,1074.436530482,682936.8325578707,366.97831683912847,2752.5870552250003,1950.8136763369998,380247.63777913695,801.7733788880001,516142.0797472177,325.65353957645584,2752.5870552250003,2165.1288859210003,420759.60331764113,587.458169304,383899.9181402524,292.3284551275053,2752.5870552250003,2377.962166794,462171.19207395666,374.62488843100004,248623.51954635425,258.2278770333785,1562009.2865980451,1473312.1656718005,1417871.4444951853,1347987.2851730373,1265039.0993539551,1181191.1372946508,1100259.6375327914,1010139.7644796438,896389.7175263547,804659.5214578935,710794.7116203108
2023,2752.5870552250003,0.0,0.0,2752.5870552250003,1403416.7572671724,509.8537227381007,2752.5870552250003,352.15939126500007,69395.32671133538,2400.4276639600002,1269296.9902380693,486.33968339285747,2752.5870552250003,561.187387447,110998.15628754343,2191.399667778,1180509.2747967837,469.1976693826156,2752.5870552250003,755.6639673370001,146663.82627238185,1996.9230878879998,1091762.865319003,449.9137236152387,2752.5870552250003,1033.8232618319998,200789.496514193,1718.763793393,956586.4118659369,420.46841213729533,2752.5870552250003,1237.349635432,240023.90562668937,1515.237419793,853419.4848670829,397.24207393120673,2752.5870552250003,1482.797888236,288489.76350997406,1269.789166989,726226.1425915754,368.6408043572686,2752.5870552250003,1689.968363618,328822.2147903524,1062.6186916069998,613732.2956656031,342.4249593366302,2752.5870552250003,1931.0050524710002,377165.9101036634,821.5820027539999,479289.8111553312,311.1457345675073,2752.5870552250003,2165.469202504,422988.42195431306,587.1178527209998,347091.2375956818,279.76577819336126,2752.5870552250003,2383.8618744780006,465057.29832884495,368.7251807469999,220987.85704848007,249.23649701653,1403416.7572671724,1338692.3169494045,1291507.4310843272,1238426.6915913846,1157375.9083801296,1093443.3904937722,1014715.9061015495,942554.5104559554,856455.7212589945,770079.6595499949,686045.1553773249
2024,2760.320983945,0.0,0.0,2760.320983945,1219865.0068654413,441.9286792951277,2760.320983945,364.0336514399999,71498.72794921568,2396.2873325049995,1103753.6546092113,425.76656461118444,2760.320983945,557.1485960699999,109801.75338172182,2203.172387875,1029888.1764927899,412.883116312686,2760.320983945,778.1333442069999,152767.53885362786,1982.1876397380001,939976.6611752639,395.8757718340285,2760.320983945,1003.7405438589999,196525.91833156053,1756.5804400859997,845595.3659195136,377.5362685399339,2760.320983945,1241.424530276,243434.17337652703,1518.896453669,739349.0514489182,356.0394716924803,2760.320983945,1490.689173756,290742.1880245316,1269.631810189,627266.0185849351,332.5729913111287,2760.320983945,1698.1339860320002,332024.07552642457,1062.186997913,530143.0898198227,312.3430826925258,2760.320983945,1944.2864367280001,379784.9551180544,816.034547217,413351.9225241484,287.3350172879772,2760.320983945,2162.803037323,423340.4381739911,597.5179466219998,305823.98914177745,264.15928855986164,2760.320983945,2404.3535479929997,471146.0451318696,355.967435952,184427.9714975122,237.49919681168655,1219865.0068654413,1175252.382558427,1139689.9298745114,1092744.200028892,1042121.2842510741,982783.2248254452,918008.2066094668,862167.1653462473,793136.8776422029,729164.4273157686,655574.0166293818
2025,2752.5870552250003,0.0,0.0,2752.5870552250003,1100020.1339919143,399.63136929814453,2752.5870552250003,360.165600629,71330.24819717859,2392.4214545960003,994770.6715841466,387.308702101769,2752.5870552250003,594.952805305,118078.50858853725,2157.63424992,912584.0197658524,374.4341260335331,2752.5870552250003,779.549470121,154179.61208156924,1973.037585104,846160.4503560534,363.4181380526232,2752.5870552250003,1017.7243885820001,200194.75091496258,1734.8626666430002,756938.8593224458,347.7214674902157,2752.5870552250003,1233.7505677890001,243337.21182176904,1518.8364874360002,670701.8853521668,332.0654638111785,2752.5870552250003,1464.2787318720002,288474.7677591578,1288.308323353,577276.5429828275,314.52277198594095,2752.5870552250003,1706.4040858639999,335617.85757514235,1046.182969361,475362.7198338348,294.6248605905351,2752.5870552250003,1940.0399006979999,380009.5409791511,812.5471545270002,376030.87584973103,274.66539719198175,2752.5870552250003,2143.3900283880002,420333.0333940748,609.1970268370001,286659.1921043118,256.84645437693376,2752.5870552250003,2379.5241777190004,465969.6135716291,373.06287750600006,179964.28932629206,234.6642957837792,1100020.1339919143,1066100.9197813252,1030662.5283543896,1000340.0624376227,957133.6102374084,914039.0971739359,865751.3107419854,810980.5774089772,756040.4168288822,706992.2254983865,645933.9028979213
2026,2752.6038352642004,0.0,0.0,2752.6038352642004,848694.3177287674,308.32417903948317,2752.6038352642004,328.90328603600005,63527.53296055229,2423.7005492281996,800920.7206185022,314.0474638974275,2752.6038352642004,563.6871888930001,108751.46517667905,2188.9166463712,751616.377824177,312.56508182488824,2752.6038352642004,788.6714914089998,152285.34675401385,1963.9323438551999,694193.7296190722,307.5193987339043,2752.6038352642004,1023.1502647410002,197657.30693829057,1729.4535705232,627853.437087579,299.90176335950486,2752.6038352642004,1228.846070869,236811.43160115276,1523.7577643952002,565196.0967981758,291.3632242041653,2752.6038352642004,1443.571822981,277373.55242095824,1309.0320122832,495123.5354830767,280.6423060258104,2752.6038352642004,1692.000644839,324564.9200982336,1060.6031904252,409988.01932684245,266.8574859972802,2752.6038352642004,1908.109152447,366625.8035424423,844.4946828172,333481.2489277573,254.34355772558968,2752.6038352642004,2150.4929073862004,414543.02238341334,602.110927878,243861.98897988908,239.19352393843758,2752.6038352642004,2391.5510178862005,461406.01532236446,361.0528173779999,151591.01003021962,222.69714860502157,848694.3177287674,864448.2535790545,860367.843000856,846479.076373086,825510.7440258698,802007.5283993286,772497.0879040351,734552.9394250761,700107.0524701996,658405.0113633026,612997.025352584
2027,2752.6038352642,0.0,0.0,2752.6038352642,770050.5914913595,279.753512520064,2752.6038352642,321.925716879,63089.6152519293,2430.6781183851995,741811.8658705328,292.4145751781262,2752.6038352642,560.563095945,107514.69789480609,2192.0407393192,701795.8884476054,294.0163695095383,2752.6038352642,798.5919769499999,152543.15890304232,1954.0118583142,647945.1881110502,290.81131718224907,2752.6038352642,1014.3720184089999,194666.50101150235,1738.2318168552,593072.7836445442,286.1796799685262,2752.6038352642,1232.257083559,235145.9894564915,1520.3467517052,532793.3366116185,278.9865058784973,2752.6038352642,1443.39071816,275016.79286920646,1309.2131171042001,467971.23624750215,269.92188981143204,2752.6038352642,1690.7635545859998,323619.4702575845,1061.8402806782,386351.52743543556,257.9270538671163,2752.6038352642,1929.010770427,370276.8847321556,823.5930648372001,306462.8812082048,245.85440057537582,2752.6038352642,2148.8224888311997,413038.1915117606,603.781346433,231061.2527944347,233.99642042726916,2752.6038352642,2384.7436827022007,457063.710055036,367.86015256199994,147366.94456211946,219.58505138794922,770050.5914913595,804901.481122462,809310.5863424113,800488.3470140925,787739.2846560465,767939.3260681101,742988.0291167086,709970.9976930202,676739.7659403604,644099.4443061952,604430.6546171554
2028,2760.3376590870002,0.0,0.0,2760.3376590870002,723481.1343634792,262.0987805538165,2760.3376590870002,353.53551856499996,68153.32924705971,2406.8021405219997,704263.1744489745,279.8268179812161,2760.3376590870002,537.819120175,102994.91520112145,2222.518538912,677357.8516250589,282.7019238958929,2760.3376590870002,813.5822545909999,153903.7169009152,1946.7554044960002,625782.4092574588,282.46041696806776,2760.3376590870002,1021.0874187710001,193154.05181207624,1739.2502403159997,575286.0226116555,278.3862589759756,2760.3376590870002,1238.180492336,233127.9336586219,1522.1571667509997,516534.19259952055,271.58348682099205,2760.3376590870002,1463.557534381,276750.5273753769,1296.780124706,448953.7762043709,262.9041781141294,2760.3376590870002,1725.4536850670002,327374.3877369375,1034.8839740199999,365609.33197845996,251.05034430628547,2760.3376590870002,1925.7872976449999,366903.7005605269,834.5503614419999,299986.46117024723,241.59731311688608,2760.3376590870002,2176.671914624,414966.10173170804,583.665744463,216111.08824118937,228.62318596980276,2760.3376590870002,2386.3526248009994,455932.9234741638,373.985034286,142968.75888051157,216.9668193972929,723481.1343634792,772416.5036960342,780352.7668261803,779686.1261583741,768440.0744237318,749662.1262581424,725704.3035797478,692983.7197153975,666890.1617307743,631077.1899728973,598901.6823546755
2029,2752.6038352642,0.0,0.0,2752.6038352642,731884.1385346705,265.8879309686143,2752.6038352642,328.885016836,63994.494793586724,2423.7188184282,709866.5532172184,281.13782233996227,2752.6038352642,555.13736022,106190.27642053923,2197.4664750442,676441.7035164667,284.3242350789965,2752.6038352642,778.956906377,147054.26306912038,1973.6469288872,634933.6737847521,284.09025913415394,2752.6038352642,1037.986001619,197690.21864153905,1714.6178336451999,569665.9769685853,278.7746590262496,2752.6038352642,1233.057551213,233220.98255598114,1519.5462840512,517768.94436336745,272.82891831300054,2752.6038352642,1447.636789145,271760.50473728543,1304.9670461192,456127.7453508605,264.43625514249925,2752.6038352642,1707.2429695390003,322853.1206585153,1045.3608657252,372188.18732126243,252.50321135045087,2752.6038352642,1925.930671765,365998.1410954905,826.6731634991999,299472.6305617543,241.7604608159574,2752.6038352642,2142.941235961,408882.10316642956,609.6625993032,225527.18280566807,230.47605973825358,2752.6038352642,2374.7734917352004,454574.9063072205,377.83034352899995,144207.16424979156,217.5329638380526,731884.1385346705,773861.0480108054,782631.9799370057,781987.9368538726,767356.1956101243,750989.9269193484,727888.250088146,695041.3079797779,665470.7716572447,634409.2859720977,598782.0705570121
2030,2752.6038352642,0.0,0.0,2752.6038352642,706107.275856353,256.5233931633244,2752.6038352642,323.59313542999996,63445.53861122171,2429.0106998342,692019.8551331073,274.45482130988097,2752.6038352642,550.539420307,105130.48613316876,2202.0644149572,663906.7870050543,279.38538168330695,2752.6038352642,790.3809640559999,149673.37985714368,1962.2228712081996,624139.1385681921,281.1201919113303,2752.6038352642,1026.1373632739999,194632.07947856674,1726.4664719901998,570063.7834331859,277.80818042722655,2752.6038352642,1236.586554254,234504.78811698518,1516.0172810102,514737.557928002,272.1940354969655,2752.6038352642,1437.353795128,270694.55457825353,1315.2500401362,458875.8189962947,265.04735778823857,2752.6038352642,1702.4801899210001,322000.9221144859,1050.1236453431998,374559.1635487356,253.05497171058192,2752.6038352642,1918.887782308,362166.0355337719,833.7160529561997,305732.2100601991,242.6423436011324,2752.6038352642,2144.5933901390003,407026.8403681524,608.0104451251999,228300.17205821286,230.80946276651017,2752.6038352642,2387.0133684552,454446.38203096663,365.5904668089998,142677.28759077453,216.93047941438624,706107.275856353,755465.393744329,769037.273138223,773812.5184253358,764695.8629117527,749242.3460449871,729570.3735745482,696560.0856632214,667898.2455939709,635327.0124263654,597123.6696217412
2031,2752.6038352642,0.0,0.0,2752.6038352642,715540.2729172908,259.95032912123077,2752.6038352642,323.59313542999996,63664.53913354111,2429.0106998342,700793.7468311897,277.72187053258125,2752.6038352642,550.539420307,105445.27545980032,2202.0644149572,671945.058911466,282.41998518346577,2752.6038352642,781.797086637,148634.32724853556,1970.8067486271998,633692.14136975,284.21324514473633,2752.6038352642,1023.539061996,193632.11516423337,1729.0647732682,577753.7711096097,280.2386149403168,2752.6038352642,1229.91895131,231987.7892342339,1522.6848839542,523749.9232829397,274.5537526451338,2752.6038352642,1445.7957343269998,272758.75693638163,1306.8081009372002,460975.53607491084,266.56007799279524,2752.6038352642,1681.579316765,318516.3229783581,1071.0245184992,385395.86256279156,255.72593357721124,2752.6038352642,1920.9322303539998,363379.3568241924,831.6716049102,307548.23243139195,243.74288107143738,2752.6038352642,2154.8630755980003,409525.42645237275,597.7407596662,226760.78601522118,231.15793283290327,2752.6038352642,2384.258284406,454547.6176094054,368.34555085820006,144852.30256704174,217.75742389711363,715540.2729172908,764458.2859647308,777390.3343712664,782326.4686182855,771385.8862738432,755737.7125171737,733734.2930112925,703912.1855411497,670927.5892555843,636286.2124675938,599399.9201764471
2032,2760.3376590870002,0.0,0.0,2760.3376590870002,724798.5855766934,262.5760595594762,2760.3376590870002,353.53551856499996,68663.07932993154,2406.8021405219997,708376.2427651617,281.50154729697243,2760.3376590870002,551.832742842,106880.57947775107,2208.5049162450005,681318.6167383001,285.5444853354474,2760.3376590870002,825.367171511,157286.3836622472,1934.970487576,633359.4471020413,286.4308386915969,2760.3376590870002,1016.0552910330001,192702.28440044838,1744.2823680540002,586663.4729854636,282.3443555248572,2760.3376590870002,1238.281548337,234416.0150756212,1522.0561107500002,527206.2747472146,275.9163493334171,2760.3376590870002,1471.806851346,278825.8530135366,1288.530807741,458174.2214591513,266.99634809042004,2760.3376590870002,1726.3720475980003,327151.9606240379,1033.965611489,377973.24986907915,255.44889704774081,2760.3376590870002,1944.9315279779998,369924.2743663675,815.406131109,304144.5103483562,244.1979453113995,2760.3376590870002,2160.649344131,410459.8670848095,599.688314956,230066.19791381355,232.04627263263197,2760.3376590870002,2407.762396879,458945.70464520063,352.575262208,141140.33134792134,217.39588054296388,724798.5855766934,777039.3220950933,788199.1962160512,790645.8307642887,779365.757385912,761622.2898228356,737000.0744726879,705125.210493117,674068.7847147238,640526.0649986232,600086.035993122
2033,2752.6038352642004,0.0,0.0,2752.6038352642004,710725.5106303903,258.20116266828256,2752.6038352642004,325.951893898,64947.374742726824,2426.6519413661995,697305.4203992954,276.9206325213376,2752.6038352642004,545.0780257740001,106304.18495288987,2207.5258094902,671232.2319175963,282.47305584236267,2752.6038352642004,787.8880090430001,150162.5410530654,1964.7158262211997,633616.304723247,284.74088269991955,2752.6038352642004,1007.868996329,189629.40103488753,1744.7348389352,586311.0893234134,281.89326790058215,2752.6038352642004,1266.7179788950002,238000.11949818104,1485.8858563692002,519453.8683521817,275.17726239659214,2752.6038352642004,1446.9357841299998,272004.8077507639,1305.6680511342001,467568.81618824037,268.6814624262916,2752.6038352642004,1687.0247393169998,317647.11111483845,1065.5790959471997,391400.4943433987,257.5915925039687,2752.6038352642004,1945.6458994109998,366764.1256224348,806.9579358531998,305414.272890515,244.19729054414861,2752.6038352642004,2146.383118533,406122.08611351694,606.2207167312,234598.55305752024,232.7689262663327,2752.6038352642004,2389.2497988719997,453975.0240895298,363.3540363922,146052.94247120328,217.98558836315118,710725.5106303903,762252.7951420222,777536.4168704861,783778.8457763123,775940.4903583011,757453.9878503628,739573.6239390044,709047.6054582372,672178.3985129497,640720.6391710372,600027.9665607332
2034,2752.6038352642,0.0,0.0,2752.6038352642,697911.1073769103,253.54578760511083,2752.6038352642,317.26246616799995,63010.25541887596,2435.3413690961993,687002.2048458161,272.4738121251308,2752.6038352642,545.0780257740001,106518.92871928842,2207.5258094902,661792.23914148,279.1215931685369,2752.6038352642,795.1861213709999,152807.1637107672,1957.4177138931998,622374.3883180632,281.6175513881848,2752.6038352642,1024.821543921,193189.54023844784,1727.7822913431999,576943.7202653791,279.78354554240025,2752.6038352642,1281.1361844980001,240629.11565548574,1471.4676507661998,513206.62548055255,273.8627809343599,2752.6038352642,1453.99379701,273237.2261827227,1298.6100382542,462951.39146588225,267.4517154329054,2752.6038352642,1673.167221435,313833.27627233224,1079.4366138291998,396220.79850471905,257.95723513874236,2752.6038352642,1947.3575080360001,366862.92769445,805.2463272281997,305104.4558274098,244.12063040570578,2752.6038352642,2154.0938629050006,407612.2556867161,598.5099723591999,231918.42568448168,232.33662366448547,2752.6038352642,2398.026558848,455441.4431367466,354.5772764161999,143158.29092916788,217.4667223801422,697911.1073769103,750012.4602646921,768311.1678607683,775181.5520288303,770133.2605038269,753835.7411360383,736188.6176486049,710054.0747770513,671967.38352186,639530.6813711978,598599.7340659144
2035,2752.6038352642,0.0,0.0,2752.6038352642,690266.8893259708,250.7687014320089,2752.6038352642,317.26246616799995,62987.48310777492,2435.3413690961993,680409.9378782072,270.0706187581946,2752.6038352642,545.0780257740001,106685.81750302837,2207.5258094901997,655151.9056298586,276.7698400230429,2752.6038352642,795.1861213709999,152973.6001277189,1957.4177138931998,616459.3804780518,279.52913919119027,2752.6038352642,1029.717481031,195825.70148266442,1722.8863542331997,569622.691551174,278.081568886708,2752.6038352642,1263.8343353760001,237753.43372488243,1488.7694998881996,515123.4640965939,273.5144404640466,2752.6038352642,1464.683697045,275002.2175011885,1287.9201382191998,459088.15382868564,266.68943853281183,2752.6038352642,1692.8206608550001,319660.05559557833,1059.7831744091995,388853.7926071486,257.3976825599832,2752.6038352642,1932.3681175300003,366208.9038344782,820.2357177341997,309465.87816175906,245.46750002307715,2752.6038352642,2158.646755471,407993.3533649143,593.9570797931999,232182.92502178118,232.57116414111596,2752.6038352642,2407.5454192681996,457327.1174858188,345.0584159959999,141391.0824814,217.50976013944003,690266.8893259708,743397.420985982,761837.7231328869,769432.9806057707,765448.3930338382,752876.8978214762,734090.371329874,708513.8482027268,675674.7819962372,640176.2783866955,598718.1999672188
2036,2760.3376590870002,0.0,0.0,2760.3376590870002,696544.6820229343,252.34039021636252,2760.3376590870002,333.3495613299999,65251.56692972279,2426.988097757,684129.9928080628,271.4818447195509,2760.3376590870002,558.5336885849999,108820.70440329543,2201.803970502,659639.6501892761,278.39360596440395,2760.3376590870002,808.8485091599999,155247.3788663149,1951.4891499270002,623497.116888726,282.11928826584784,2760.3376590870002,1022.754108398,194088.09370152286,1737.5835506889998,578326.9072252196,279.8262735661926,2760.3376590870002,1239.9837966459997,234629.59359081043,1520.3538624409996,526260.4251346532,275.6510661732351,2760.3376590870002,1469.5223975550002,278215.8010713514,1290.8152615319998,460824.8449599686,267.73559517199163,2760.3376590870002,1710.819880452,322621.2909759223,1049.5177786349998,388616.0251313813,257.6631571742386,2760.3376590870002,1922.911345419,364881.6228623953,837.4263136679998,317776.23169177223,247.3095464632255,2760.3376590870002,2158.7653597569997,411174.8579100237,601.5722993299999,234753.1348192266,234.00325340737305,2760.3376590870002,2403.6952869280003,456663.4019298516,356.6423721589999,147804.64149278606,218.98337018036028,696544.6820229343,749381.5597377857,768460.3545925715,778744.495755041,772415.0009267426,760890.0187254637,739040.6460313201,711237.3161073036,682657.8545541676,645927.9927292502,604468.0434226377
